{
  "project_info": {
    "project_number": "240698124582",
    "firebase_url": "https://qwackproject.firebaseio.com",
    "project_id": "qwackproject",
    "storage_bucket": "qwackproject.appspot.com"
  },
  "client": [
    {
      "client_info": {
        "mobilesdk_app_id": "1:240698124582:android:868799d08cdf8aff",
        "android_client_info": {
          "package_name": "com.qwackteam.everything"
        }
      },
      "oauth_client": [
        {
          "client_id": "240698124582-flu1fuuqhq3o371no64nae03n521stmt.apps.googleusercontent.com",
          "client_type": 3
        }
      ],
      "api_key": [
        {
          "current_key": "AIzaSyCzn9WrRxsetoueTK1CdsV3W6sxWh6kUJ8"
        }
      ],
      "services": {
        "analytics_service": {
          "status": 1
        },
        "appinvite_service": {
          "status": 1,
          "other_platform_oauth_client": []
        },
        "ads_service": {
          "status": 2
        }
      }
    }
  ],
  "configuration_version": "1"
}